{
  "defaultSeverity": "error",
  "extends": ["tslint:recommended", "tslint-config-prettier"],
  "jsRules": {
    "no-unused-expression": true
  },
  "rules": {
    "member-access": [false],
    "ordered-imports": [false],
    "max-line-length": [true, 150],
    "member-ordering": [false],
    "interface-name": [false],
    "arrow-parens": false,
    "object-literal-sort-keys": false
  }
}
